.........................................................................................................
:                                                                                                       :
:                                                                                                       :
:                                                                  .M@`                                 :
:                      M        ....        ...                    dMNggggggggggg,                      :
:                   .(MM@     (MH`WMN,   .MM``HMa   (M@````9`    .dMt~~~~dM!~~~~~                       :
:                  (@` M@           MM. .M@    JMb  (M]        .(M@i.....JM-.....                       :
:                      M@          .M@  (Mb     M@  (ML....     T^ JM````HM`````!                       :
:                      M@         .MM^   WMm..(gM@  .````WMN,      JM`   JM~                            :
:                      M@        .M@`      ???!.M@        ,MN  ....dM+...JM+......,                     :
:                      M@      .M@'           .dM^        .MF  .`````````WM```````!                     :
:                  .gggMNgge  MMNggggge  NNgggMB!  .MNgggMMD             JM~                            :              
:                                                                                                       :
:                                                                                                       :
:                                                                                                       :
:                                     ..                                                                :
:                     .MN,           .MM^               ...     .NK               ...........           :
:                   .JM@!           .dMNgggggge.        MN      .M@         MMMMMMMMMMMMMMMM@`          :
:                `.JM@^            .MM``````4MF         MN      .M@                ...  .MM3            :
:               .MMMF             .MM'..    dM'         MN      .M@                dM>.MM`              :
:           ..MMM`JMF            HMD  TMMN,-MF          MN      .M@                dM?W`                :
:         ?MM@``  ,MF                   -TMMN,          H8      .MF               .M@                   :
:                 ,MF                   .MM`TM^                .MM'               JM%                   :
:                 ,MF                ..MMD`                   .MM^              .MM3                    :
:                 ,MF              JMMM`                   .gMMD              (MMD`                     :
:                  ``               ?                       ?!                                          :
:                                                                                                       :
:                                                                                                       :
.........................................................................................................
