....................................................................
:                                                                  :
:                                                                  :
:         .&&&&&&&.MMMMMMMMM&            .MF   .MF .,              :
:         .??zMF?? M@......M&            MM`   .MF TMM;            :
:            .M[   M&``````M&           JM%    .Mb ......          :
:          ...Ma.. MN......M&         .gMM{jMMMMMMMH````'          :
:          ``4MY`` M&??????M&        .MM4M{     dM-                :
:            .M[   MNggggggM&         - (M{     ,Mb                :
:            .Ma.g,  JM`,M]             (M{      WM,               :
:         (MMMY`=`  .MF ,M] ...         (M{       WMa .MF          :
:             ...JgMM`  ,ML.JM:         (M{        ?MMMM\          :
:             .```^      T``B=          ,`!           ?`           :
:                                                                  :
:                                                                  :
....................................................................
